[
  {
    "type": "post",
    "url": "/service/create",
    "title": "Create new Service",
    "name": "CreateServices",
    "group": "Service",
    "parameter": {
      "fields": {
        "Parameter": [
          {
            "group": "Parameter",
            "type": "String",
            "optional": false,
            "field": "name",
            "description": "<p>Service name.</p>"
          },
          {
            "group": "Parameter",
            "type": "String",
            "optional": false,
            "field": "owner",
            "description": "<p>Service owner.</p>"
          },
          {
            "group": "Parameter",
            "type": "String",
            "optional": false,
            "field": "description",
            "description": "<p>Service description.</p>"
          },
          {
            "group": "Parameter",
            "type": "Number",
            "optional": false,
            "field": "price",
            "description": "<p>Service price.</p>"
          }
        ]
      }
    },
    "success": {
      "fields": {
        "Success 200": [
          {
            "group": "Success 200",
            "type": "Boolean",
            "optional": false,
            "field": "success",
            "description": "<p>request result status true.</p>"
          },
          {
            "group": "Success 200",
            "type": "Service[]",
            "optional": false,
            "field": "services",
            "description": "<p>Created Service object.</p>"
          }
        ]
      }
    },
    "error": {
      "fields": {
        "Error 4xx": [
          {
            "group": "Error 4xx",
            "type": "Boolean",
            "optional": false,
            "field": "success",
            "description": "<p>request result status false.</p>"
          },
          {
            "group": "Error 4xx",
            "type": "String",
            "optional": false,
            "field": "msg",
            "description": "<p>error message.</p>"
          }
        ]
      }
    },
    "version": "0.0.0",
    "filename": "routes/service.router.js",
    "groupTitle": "Service"
  },
  {
    "type": "post",
    "url": "/service/get",
    "title": "Request Service information",
    "name": "GetService",
    "group": "Service",
    "parameter": {
      "fields": {
        "Parameter": [
          {
            "group": "Parameter",
            "type": "String",
            "optional": false,
            "field": "id",
            "description": "<p>Service unique ID.</p>"
          }
        ]
      }
    },
    "success": {
      "fields": {
        "Success 200": [
          {
            "group": "Success 200",
            "type": "Boolean",
            "optional": false,
            "field": "success",
            "description": "<p>request result status true.</p>"
          },
          {
            "group": "Success 200",
            "type": "Service",
            "optional": false,
            "field": "service",
            "description": "<p>Service object.</p>"
          }
        ]
      }
    },
    "error": {
      "fields": {
        "Error 4xx": [
          {
            "group": "Error 4xx",
            "type": "Boolean",
            "optional": false,
            "field": "success",
            "description": "<p>request result status false.</p>"
          },
          {
            "group": "Error 4xx",
            "type": "String",
            "optional": false,
            "field": "msg",
            "description": "<p>error message.</p>"
          }
        ]
      }
    },
    "version": "0.0.0",
    "filename": "routes/service.router.js",
    "groupTitle": "Service"
  },
  {
    "type": "post",
    "url": "/service/all",
    "title": "Request all Services information",
    "name": "GetServices",
    "group": "Service",
    "parameter": {
      "fields": {
        "Parameter": [
          {
            "group": "Parameter",
            "type": "String",
            "optional": false,
            "field": "email",
            "description": "<p>email of services owner.</p>"
          }
        ]
      }
    },
    "success": {
      "fields": {
        "Success 200": [
          {
            "group": "Success 200",
            "type": "Boolean",
            "optional": false,
            "field": "success",
            "description": "<p>request result status true.</p>"
          },
          {
            "group": "Success 200",
            "type": "Service[]",
            "optional": false,
            "field": "services",
            "description": "<p>Array of Service objects.</p>"
          }
        ]
      }
    },
    "error": {
      "fields": {
        "Error 4xx": [
          {
            "group": "Error 4xx",
            "type": "Boolean",
            "optional": false,
            "field": "success",
            "description": "<p>request result status false.</p>"
          },
          {
            "group": "Error 4xx",
            "type": "String",
            "optional": false,
            "field": "msg",
            "description": "<p>error message.</p>"
          }
        ]
      }
    },
    "version": "0.0.0",
    "filename": "routes/service.router.js",
    "groupTitle": "Service"
  },
  {
    "type": "post",
    "url": "/service/remove",
    "title": "Remove Service",
    "name": "RemoveServices",
    "group": "Service",
    "parameter": {
      "fields": {
        "Parameter": [
          {
            "group": "Parameter",
            "type": "String",
            "optional": false,
            "field": "id",
            "description": "<p>Unique Service id.</p>"
          },
          {
            "group": "Parameter",
            "type": "String",
            "optional": false,
            "field": "name",
            "description": "<p>Service name.</p>"
          },
          {
            "group": "Parameter",
            "type": "String",
            "optional": false,
            "field": "owner",
            "description": "<p>Service owner.</p>"
          },
          {
            "group": "Parameter",
            "type": "String",
            "optional": false,
            "field": "description",
            "description": "<p>Service description.</p>"
          },
          {
            "group": "Parameter",
            "type": "Number",
            "optional": false,
            "field": "price",
            "description": "<p>Service price.</p>"
          }
        ]
      }
    },
    "success": {
      "fields": {
        "Success 200": [
          {
            "group": "Success 200",
            "type": "Boolean",
            "optional": false,
            "field": "success",
            "description": "<p>request result status true.</p>"
          }
        ]
      }
    },
    "error": {
      "fields": {
        "Error 4xx": [
          {
            "group": "Error 4xx",
            "type": "Boolean",
            "optional": false,
            "field": "success",
            "description": "<p>request result status false.</p>"
          },
          {
            "group": "Error 4xx",
            "type": "String",
            "optional": false,
            "field": "msg",
            "description": "<p>error message.</p>"
          }
        ]
      }
    },
    "version": "0.0.0",
    "filename": "routes/service.router.js",
    "groupTitle": "Service"
  },
  {
    "type": "post",
    "url": "/service/update",
    "title": "Update Service information",
    "name": "UpdateServices",
    "group": "Service",
    "parameter": {
      "fields": {
        "Parameter": [
          {
            "group": "Parameter",
            "type": "Service",
            "optional": false,
            "field": "service",
            "description": "<p>Updated Service object.</p>"
          }
        ]
      }
    },
    "success": {
      "fields": {
        "Success 200": [
          {
            "group": "Success 200",
            "type": "Boolean",
            "optional": false,
            "field": "success",
            "description": "<p>request result status true.</p>"
          },
          {
            "group": "Success 200",
            "type": "Service",
            "optional": false,
            "field": "service",
            "description": "<p>Updated Service objects.</p>"
          }
        ]
      }
    },
    "error": {
      "fields": {
        "Error 4xx": [
          {
            "group": "Error 4xx",
            "type": "Boolean",
            "optional": false,
            "field": "success",
            "description": "<p>request result status false.</p>"
          },
          {
            "group": "Error 4xx",
            "type": "String",
            "optional": false,
            "field": "msg",
            "description": "<p>error message.</p>"
          }
        ]
      }
    },
    "version": "0.0.0",
    "filename": "routes/service.router.js",
    "groupTitle": "Service"
  },
  {
    "type": "post",
    "url": "/task/all",
    "title": "Get all Tasks for user",
    "name": "AllTask",
    "group": "Task",
    "parameter": {
      "fields": {
        "Parameter": [
          {
            "group": "Parameter",
            "type": "String",
            "optional": false,
            "field": "email",
            "description": "<p>User email.</p>"
          }
        ]
      }
    },
    "success": {
      "fields": {
        "Success 200": [
          {
            "group": "Success 200",
            "type": "Boolean",
            "optional": false,
            "field": "success",
            "description": "<p>request result status true.</p>"
          },
          {
            "group": "Success 200",
            "type": "Task[]",
            "optional": false,
            "field": "tasks",
            "description": "<p>Tasks objects array.</p>"
          }
        ]
      }
    },
    "error": {
      "fields": {
        "Error 4xx": [
          {
            "group": "Error 4xx",
            "type": "Boolean",
            "optional": false,
            "field": "success",
            "description": "<p>request result status false.</p>"
          },
          {
            "group": "Error 4xx",
            "type": "String",
            "optional": false,
            "field": "msg",
            "description": "<p>error message.</p>"
          }
        ]
      }
    },
    "version": "0.0.0",
    "filename": "routes/tasks.js",
    "groupTitle": "Task"
  },
  {
    "type": "post",
    "url": "/task/create",
    "title": "Create new Task",
    "name": "CreateTask",
    "group": "Task",
    "parameter": {
      "fields": {
        "Parameter": [
          {
            "group": "Parameter",
            "type": "Customer",
            "optional": false,
            "field": "customer",
            "description": "<p>Customer object with email and/or phone values.</p>"
          },
          {
            "group": "Parameter",
            "type": "String",
            "optional": false,
            "field": "service",
            "description": "<p>Service id.</p>"
          },
          {
            "group": "Parameter",
            "type": "String",
            "optional": false,
            "field": "owner",
            "description": "<p>Service owner email</p>"
          },
          {
            "group": "Parameter",
            "type": "Number",
            "optional": false,
            "field": "time",
            "description": "<p>Task time in milliseconds.</p>"
          }
        ]
      }
    },
    "success": {
      "fields": {
        "Success 200": [
          {
            "group": "Success 200",
            "type": "Boolean",
            "optional": false,
            "field": "success",
            "description": "<p>request result status true.</p>"
          },
          {
            "group": "Success 200",
            "type": "String",
            "optional": false,
            "field": "taskId",
            "description": "<p>Unique Task id.</p>"
          }
        ]
      }
    },
    "error": {
      "fields": {
        "Error 4xx": [
          {
            "group": "Error 4xx",
            "type": "Boolean",
            "optional": false,
            "field": "success",
            "description": "<p>request result status false.</p>"
          },
          {
            "group": "Error 4xx",
            "type": "String",
            "optional": false,
            "field": "msg",
            "description": "<p>error message.</p>"
          }
        ]
      }
    },
    "version": "0.0.0",
    "filename": "routes/tasks.js",
    "groupTitle": "Task"
  },
  {
    "type": "post",
    "url": "/task/remove",
    "title": "Remove Task",
    "name": "RemoveTask",
    "group": "Task",
    "parameter": {
      "fields": {
        "Parameter": [
          {
            "group": "Parameter",
            "type": "String",
            "optional": false,
            "field": "id",
            "description": "<p>Id of Task for remove.</p>"
          }
        ]
      }
    },
    "success": {
      "fields": {
        "Success 200": [
          {
            "group": "Success 200",
            "type": "Boolean",
            "optional": false,
            "field": "success",
            "description": "<p>request result status true.</p>"
          }
        ]
      }
    },
    "error": {
      "fields": {
        "Error 4xx": [
          {
            "group": "Error 4xx",
            "type": "Boolean",
            "optional": false,
            "field": "success",
            "description": "<p>request result status false.</p>"
          },
          {
            "group": "Error 4xx",
            "type": "String",
            "optional": false,
            "field": "msg",
            "description": "<p>error message.</p>"
          }
        ]
      }
    },
    "version": "0.0.0",
    "filename": "routes/tasks.js",
    "groupTitle": "Task"
  },
  {
    "type": "post",
    "url": "/task/update",
    "title": "Update Task information",
    "name": "UpdateTask",
    "group": "Task",
    "parameter": {
      "fields": {
        "Parameter": [
          {
            "group": "Parameter",
            "type": "String",
            "optional": false,
            "field": "id",
            "description": "<p>Id of Task for remove.</p>"
          },
          {
            "group": "Parameter",
            "type": "Number",
            "optional": false,
            "field": "time",
            "description": "<p>Task time.</p>"
          },
          {
            "group": "Parameter",
            "type": "String",
            "optional": false,
            "field": "comment",
            "description": "<p>Task comment.</p>"
          },
          {
            "group": "Parameter",
            "type": "String",
            "optional": false,
            "field": "customer",
            "description": "<p>Customer id.</p>"
          },
          {
            "group": "Parameter",
            "type": "String",
            "optional": false,
            "field": "service",
            "description": "<p>Service id.</p>"
          }
        ]
      }
    },
    "success": {
      "fields": {
        "Success 200": [
          {
            "group": "Success 200",
            "type": "Boolean",
            "optional": false,
            "field": "success",
            "description": "<p>request result status true.</p>"
          }
        ]
      }
    },
    "error": {
      "fields": {
        "Error 4xx": [
          {
            "group": "Error 4xx",
            "type": "Boolean",
            "optional": false,
            "field": "success",
            "description": "<p>request result status false.</p>"
          },
          {
            "group": "Error 4xx",
            "type": "String",
            "optional": false,
            "field": "msg",
            "description": "<p>error message.</p>"
          }
        ]
      }
    },
    "version": "0.0.0",
    "filename": "routes/tasks.js",
    "groupTitle": "Task"
  }
]
